<?xml version="1.0" encoding="UTF-8" standalone="no"?>
<!-- Generated by graphviz version 2.40.1 (20161225.0304)
 -->

<!-- Title: %0 Pages: 1 -->

<svg
   width="225pt"
   height="188pt"
   viewBox="0.00 0.00 224.68 188.00"
   version="1.1"
   id="svg66349"
   sodipodi:docname="1or6_fusion.svg"
   inkscape:version="1.1.1 (3bf5ae0d25, 2021-09-20)"
   xmlns:inkscape="http://www.inkscape.org/namespaces/inkscape"
   xmlns:sodipodi="http://sodipodi.sourceforge.net/DTD/sodipodi-0.dtd"
   xmlns="http://www.w3.org/2000/svg"
   xmlns:svg="http://www.w3.org/2000/svg">
  <defs
     id="defs66353" />
  <sodipodi:namedview
     id="namedview66351"
     pagecolor="#505050"
     bordercolor="#ffffff"
     borderopacity="1"
     inkscape:pageshadow="0"
     inkscape:pageopacity="0"
     inkscape:pagecheckerboard="1"
     inkscape:document-units="pt"
     showgrid="false"
     showguides="false"
     inkscape:zoom="3.1715426"
     inkscape:cx="149.92704"
     inkscape:cy="125.33333"
     inkscape:window-width="1920"
     inkscape:window-height="1013"
     inkscape:window-x="-9"
     inkscape:window-y="-9"
     inkscape:window-maximized="1"
     inkscape:current-layer="graph0" />
  <g
     id="graph0"
     class="graph"
     transform="scale(1 1) rotate(0) translate(4 184)">
    <title
       id="title66272">%0</title>
    <!-- 2569415596784 -->
    <g
       id="node1"
       class="node">
      <title
         id="title66276">2569415596784</title>
      <ellipse
         fill="none"
         stroke="#000000"
         cx="106.2659"
         cy="-162"
         rx="27"
         ry="18"
         id="ellipse66278" />
      <text
         text-anchor="middle"
         x="106.2659"
         y="-157.8"
         font-family="Times, serif"
         font-size="14px"
         fill="#000000"
         id="text66280"><tspan
           style="font-style:normal;font-variant:normal;font-weight:normal;font-stretch:normal;font-family:'lm roman 10';-inkscape-font-specification:'lm roman 10, '"
           id="tspan103266"><tspan
             style="font-style:italic"
             id="tspan114640">x</tspan><tspan
             style="font-size:8px"
             id="tspan117932"
             dy="3">2</tspan></tspan></text>
    </g>
    <!-- 2569415596352 -->
    <g
       id="node2"
       class="node">
      <title
         id="title66283">2569415596352</title>
      <ellipse
         fill="none"
         stroke="#000000"
         cx="70.2659"
         cy="-90"
         rx="27"
         ry="18"
         id="ellipse66285" />
      <text
         text-anchor="middle"
         x="70.2659"
         y="-85.800003"
         font-family="Times, serif"
         font-size="14px"
         fill="#000000"
         id="text66287"><tspan
           style="font-style:normal;font-variant:normal;font-weight:normal;font-stretch:normal;font-family:'lm roman 10';-inkscape-font-specification:'lm roman 10, '"
           id="tspan104090"
           dy="0 3"><tspan
             style="font-style:italic"
             id="tspan113492">x</tspan><tspan
             style="font-size:8px"
             id="tspan121172">1</tspan></tspan></text>
    </g>
    <!-- 2569415596784&#45;&#45;2569415596352 -->
    <g
       id="edge1"
       class="edge">
      <title
         id="title66290">2569415596784--2569415596352</title>
      <path
         fill="none"
         stroke="#000000"
         stroke-dasharray="1,5"
         d="M97.5513,-144.5708C91.8912,-133.2506 84.5443,-118.5568 78.9003,-107.2687"
         id="path66292" />
    </g>
    <!-- 2569415596640 -->
    <g
       id="node3"
       class="node">
      <title
         id="title66295">2569415596640</title>
      <ellipse
         fill="none"
         stroke="#000000"
         cx="142.2659"
         cy="-90"
         rx="27"
         ry="18"
         id="ellipse66297" />
      <text
         text-anchor="middle"
         x="142.2659"
         y="-85.800003"
         font-family="Times, serif"
         font-size="14px"
         fill="#000000"
         id="text66299"><tspan
           style="font-style:normal;font-variant:normal;font-weight:normal;font-stretch:normal;font-family:'lm roman 10';-inkscape-font-specification:'lm roman 10, '"
           id="tspan105064"><tspan
             style="font-style:italic"
             id="tspan115764">x</tspan><tspan
             style="font-size:8px"
             id="tspan122572"
             dy="3">1</tspan></tspan></text>
    </g>
    <!-- 2569415596784&#45;&#45;2569415596640 -->
    <g
       id="edge2"
       class="edge">
      <title
         id="title66302">2569415596784--2569415596640</title>
      <path
         fill="none"
         stroke="#000000"
         d="M114.9805,-144.5708C120.6406,-133.2506 127.9875,-118.5568 133.6316,-107.2687"
         id="path66304" />
    </g>
    <!-- 2569415598720 -->
    <g
       id="node4"
       class="node">
      <title
         id="title66307">2569415598720</title>
      <ellipse
         fill="none"
         stroke="#000000"
         cx="29.2659"
         cy="-18"
         rx="29.0337"
         ry="18"
         id="ellipse66309" />
      <text
         text-anchor="middle"
         x="29.2659"
         y="-13.8"
         font-family="Times, serif"
         font-size="14px"
         fill="#000000"
         id="text66311"><tspan
           style="font-style:normal;font-variant:normal;font-weight:normal;font-stretch:normal;font-family:'lm roman 10';-inkscape-font-specification:'lm roman 10, '"
           id="tspan106644">True</tspan></text>
    </g>
    <!-- 2569415596352&#45;&#45;2569415598720 -->
    <g
       id="edge3"
       class="edge">
      <title
         id="title66314">2569415596352--2569415598720</title>
      <path
         fill="none"
         stroke="#000000"
         stroke-dasharray="1,5"
         d="M60.5495,-72.937C54.1085,-61.626 45.682,-46.8282 39.1974,-35.4407"
         id="path66316" />
    </g>
    <!-- 2569415596736 -->
    <g
       id="node5"
       class="node">
      <title
         id="title66319">2569415596736</title>
      <ellipse
         fill="none"
         stroke="#000000"
         cx="106.2659"
         cy="-18"
         rx="29.0337"
         ry="18"
         id="ellipse66321" />
      <text
         text-anchor="middle"
         x="106.2659"
         y="-13.8"
         font-family="Times, serif"
         font-size="14px"
         fill="#000000"
         id="text66323"><tspan
           style="font-style:normal;font-variant:normal;font-weight:normal;font-stretch:normal;font-family:'lm roman 10';-inkscape-font-specification:'lm roman 10, '"
           id="tspan108038">True</tspan></text>
    </g>
    <!-- 2569415596352&#45;&#45;2569415596736 -->
    <g
       id="edge4"
       class="edge">
      <title
         id="title66326">2569415596352--2569415596736</title>
      <path
         fill="none"
         stroke="#000000"
         d="M78.9805,-72.5708C84.6406,-61.2506 91.9875,-46.5568 97.6316,-35.2687"
         id="path66328" />
    </g>
    <!-- 2569415596640&#45;&#45;2569415596736 -->
    <g
       id="edge5"
       class="edge">
      <title
         id="title66331">2569415596640--2569415596736</title>
      <path
         fill="none"
         stroke="#000000"
         stroke-dasharray="1,5"
         d="M133.5513,-72.5708C127.8912,-61.2506 120.5443,-46.5568 114.9003,-35.2687"
         id="path66333" />
    </g>
    <!-- 2569415596496 -->
    <g
       id="node6"
       class="node">
      <title
         id="title66336">2569415596496</title>
      <ellipse
         fill="none"
         stroke="#000000"
         cx="185.2659"
         cy="-18"
         rx="31.3352"
         ry="18"
         id="ellipse66338" />
      <text
         text-anchor="middle"
         x="185.2659"
         y="-13.8"
         font-family="Times, serif"
         font-size="14px"
         fill="#000000"
         id="text66340"><tspan
           style="font-style:normal;font-variant:normal;font-weight:normal;font-stretch:normal;font-family:'lm roman 10';-inkscape-font-specification:'lm roman 10, '"
           id="tspan109552">False</tspan></text>
    </g>
    <!-- 2569415596640&#45;&#45;2569415596496 -->
    <g
       id="edge6"
       class="edge">
      <title
         id="title66343">2569415596640--2569415596496</title>
      <path
         fill="none"
         stroke="#000000"
         d="M152.4563,-72.937C159.2115,-61.626 168.0491,-46.8282 174.85,-35.4407"
         id="path66345" />
    </g>
  </g>
</svg>
