<?xml version="1.0" encoding="UTF-8" standalone="no"?>
<!-- Generated by graphviz version 2.40.1 (20161225.0304)
 -->

<!-- Title: %0 Pages: 1 -->

<svg
   width="148pt"
   height="188pt"
   viewBox="0.00 0.00 147.68 188.00"
   version="1.1"
   id="svg66699"
   sodipodi:docname="6_deletion.svg"
   inkscape:version="1.1.1 (3bf5ae0d25, 2021-09-20)"
   xmlns:inkscape="http://www.inkscape.org/namespaces/inkscape"
   xmlns:sodipodi="http://sodipodi.sourceforge.net/DTD/sodipodi-0.dtd"
   xmlns="http://www.w3.org/2000/svg"
   xmlns:svg="http://www.w3.org/2000/svg">
  <defs
     id="defs66703" />
  <sodipodi:namedview
     id="namedview66701"
     pagecolor="#505050"
     bordercolor="#ffffff"
     borderopacity="1"
     inkscape:pageshadow="0"
     inkscape:pageopacity="0"
     inkscape:pagecheckerboard="1"
     inkscape:document-units="pt"
     showgrid="false"
     showguides="false"
     inkscape:zoom="3.287234"
     inkscape:cx="98.71521"
     inkscape:cy="125.48544"
     inkscape:window-width="1920"
     inkscape:window-height="1013"
     inkscape:window-x="-9"
     inkscape:window-y="-9"
     inkscape:window-maximized="1"
     inkscape:current-layer="graph0" />
  <g
     id="graph0"
     class="graph"
     transform="scale(1 1) rotate(0) translate(4 184)">
    <title
       id="title66629">%0</title>
    <!-- 3026600436448 -->
    <g
       id="node1"
       class="node">
      <title
         id="title66633">3026600436448</title>
      <ellipse
         fill="none"
         stroke="#000000"
         cx="70.4175"
         cy="-162"
         rx="27"
         ry="18"
         id="ellipse66635" />
      <text
         text-anchor="middle"
         x="70.417503"
         y="-157.8"
         font-family="Times, serif"
         font-size="14px"
         fill="#000000"
         id="text66637"><tspan
           style="font-style:normal;font-variant:normal;font-weight:normal;font-stretch:normal;font-family:'lm roman 10';-inkscape-font-specification:'lm roman 10, '"
           id="tspan66913"
           dy="0 3"><tspan
             style="font-style:italic"
             id="tspan79129">x</tspan><tspan
             style="font-size:8px"
             id="tspan85613">2</tspan></tspan></text>
    </g>
    <!-- 3026600447808 -->
    <g
       id="node2"
       class="node">
      <title
         id="title66640">3026600447808</title>
      <ellipse
         fill="none"
         stroke="#000000"
         cx="34.4175"
         cy="-90"
         rx="27"
         ry="18"
         id="ellipse66642" />
      <text
         text-anchor="middle"
         x="34.4175"
         y="-85.800003"
         font-family="Times, serif"
         font-size="14px"
         fill="#000000"
         id="text66644"><tspan
           style="font-style:normal;font-variant:normal;font-weight:normal;font-stretch:normal;font-family:'lm roman 10';-inkscape-font-specification:'lm roman 10, '"
           id="tspan70041"><tspan
             style="font-style:italic"
             id="tspan80643">x</tspan><tspan
             style="font-size:8px"
             id="tspan86965"
             dy="3">1</tspan></tspan></text>
    </g>
    <!-- 3026600436448&#45;&#45;3026600447808 -->
    <g
       id="edge1"
       class="edge">
      <title
         id="title66647">3026600436448--3026600447808</title>
      <path
         fill="none"
         stroke="#000000"
         stroke-dasharray="1,5"
         d="M61.7029,-144.5708C56.0428,-133.2506 48.6959,-118.5568 43.0518,-107.2687"
         id="path66649" />
    </g>
    <!-- 3026600445360 -->
    <g
       id="node3"
       class="node">
      <title
         id="title66652">3026600445360</title>
      <ellipse
         fill="none"
         stroke="#000000"
         cx="106.4175"
         cy="-90"
         rx="27"
         ry="18"
         id="ellipse66654" />
      <text
         text-anchor="middle"
         x="106.4175"
         y="-85.800003"
         font-family="Times, serif"
         font-size="14px"
         fill="#000000"
         id="text66656"><tspan
           style="font-style:normal;font-variant:normal;font-weight:normal;font-stretch:normal;font-family:'lm roman 10';-inkscape-font-specification:'lm roman 10, '"
           id="tspan71315"
           dy="0 3"><tspan
             style="font-style:italic"
             id="tspan81977">x</tspan><tspan
             style="font-size:8px"
             id="tspan89031">1</tspan></tspan></text>
    </g>
    <!-- 3026600436448&#45;&#45;3026600445360 -->
    <g
       id="edge2"
       class="edge">
      <title
         id="title66659">3026600436448--3026600445360</title>
      <path
         fill="none"
         stroke="#000000"
         d="M79.1321,-144.5708C84.7922,-133.2506 92.1391,-118.5568 97.7831,-107.2687"
         id="path66661" />
    </g>
    <!-- 3026600447952 -->
    <g
       id="node4"
       class="node">
      <title
         id="title66664">3026600447952</title>
      <ellipse
         fill="none"
         stroke="#000000"
         cx="31.4175"
         cy="-18"
         rx="31.3352"
         ry="18"
         id="ellipse66666" />
      <text
         text-anchor="middle"
         x="31.4175"
         y="-13.8"
         font-family="Times, serif"
         font-size="14px"
         fill="#000000"
         id="text66668"><tspan
           style="font-style:normal;font-variant:normal;font-weight:normal;font-stretch:normal;font-family:'lm roman 10';-inkscape-font-specification:'lm roman 10, '"
           id="tspan72433">False</tspan></text>
    </g>
    <!-- 3026600447808&#45;&#45;3026600447952 -->
    <g
       id="edge3"
       class="edge">
      <title
         id="title66671">3026600447808--3026600447952</title>
      <path
         fill="none"
         stroke="#000000"
         stroke-dasharray="1,5"
         d="M33.6605,-71.8314C33.2092,-61 32.6378,-47.2876 32.1847,-36.4133"
         id="path66673" />
    </g>
    <!-- 3026600447856 -->
    <g
       id="node5"
       class="node">
      <title
         id="title66676">3026600447856</title>
      <ellipse
         fill="none"
         stroke="#000000"
         cx="110.4175"
         cy="-18"
         rx="29.0337"
         ry="18"
         id="ellipse66678" />
      <text
         text-anchor="middle"
         x="110.4175"
         y="-13.8"
         font-family="Times, serif"
         font-size="14px"
         fill="#000000"
         id="text66680"><tspan
           style="font-style:normal;font-variant:normal;font-weight:normal;font-stretch:normal;font-family:'lm roman 10';-inkscape-font-specification:'lm roman 10, '"
           id="tspan73773">True</tspan></text>
    </g>
    <!-- 3026600447808&#45;&#45;3026600447856 -->
    <g
       id="edge4"
       class="edge">
      <title
         id="title66683">3026600447808--3026600447856</title>
      <path
         fill="none"
         stroke="#000000"
         d="M50.1647,-75.0816C63.1213,-62.807 81.4068,-45.4838 94.4289,-33.147"
         id="path66685" />
    </g>
    <!-- 3026600445360&#45;&#45;3026600447952 -->
    <g
       id="edge6"
       class="edge">
      <title
         id="title66688">3026600445360--3026600447952</title>
      <path
         fill="none"
         stroke="#000000"
         d="M90.8774,-75.0816C78.263,-62.9717 60.5299,-45.9479 47.7159,-33.6465"
         id="path66690" />
    </g>
    <!-- 3026600445360&#45;&#45;3026600447856 -->
    <g
       id="edge5"
       class="edge">
      <title
         id="title66693">3026600445360--3026600447856</title>
      <path
         fill="none"
         stroke="#000000"
         stroke-dasharray="1,5"
         d="M107.4269,-71.8314C108.0286,-61 108.7904,-47.2876 109.3945,-36.4133"
         id="path66695" />
    </g>
  </g>
</svg>
